<?xml version="1.0" encoding="iso-8859-1"?>
<!-- Generator: Adobe Illustrator 19.0.0, SVG Export Plug-In . SVG Version: 6.00 Build 0)  -->
<svg version="1.1" id="Capa_1" xmlns="http://www.w3.org/2000/svg" xmlns:xlink="http://www.w3.org/1999/xlink" x="0px" y="0px"
	 viewBox="0 0 512 512" style="enable-background:new 0 0 512 512;" xml:space="preserve">
<g>
	<g>
		<path d="M357.868,0H154.132c-39.691,0-71.981,32.291-71.981,71.982V492.93c0,6.364,3.46,12.231,9.03,15.311
			c5.57,3.078,12.378,2.891,17.771-0.496l67.57-42.441l70.179,44.036c2.826,1.772,6.063,2.659,9.3,2.659
			c3.24,0,6.48-0.888,9.305-2.663l70.103-44.033l67.646,42.448c5.39,3.384,12.198,3.57,17.766,0.491
			c5.569-3.08,9.028-8.946,9.028-15.31V71.982C429.849,32.291,397.559,0,357.868,0z M399.925,470.46l-55.221-34.651
			c-5.652-3.546-12.954-3.545-18.604,0.004l-70.103,44.032l-70.178-44.036c-2.825-1.773-6.062-2.658-9.299-2.658
			c-3.24,0-6.48,0.888-9.306,2.662l-55.138,34.633V71.982c0-23.191,18.867-42.057,42.057-42.057h203.734
			c23.19,0,42.057,18.866,42.057,42.057V470.46z"/>
	</g>
</g>
<g>
	<g>
		<path d="M334.576,328.987H173.223c-8.263,0-14.962,6.699-14.962,14.962s6.699,14.962,14.962,14.962h161.353
			c8.263,0,14.962-6.699,14.962-14.962S342.841,328.987,334.576,328.987z"/>
	</g>
</g>
<g>
	<g>
		<path d="M334.576,377.405h-61.605c-8.263,0-14.962,6.699-14.962,14.962c0,8.263,6.699,14.962,14.962,14.962h61.606
			c8.263,0,14.962-6.699,14.962-14.962C349.54,384.104,342.841,377.405,334.576,377.405z"/>
	</g>
</g>
<g>
	<g>
		<path d="M234.724,377.405h-21.706c-8.263,0-14.962,6.699-14.962,14.962c0,8.263,6.699,14.962,14.962,14.962h21.706
			c8.263,0,14.962-6.699,14.962-14.962C249.686,384.104,242.987,377.405,234.724,377.405z"/>
	</g>
</g>
<g>
	<g>
		<path d="M306.913,187.806c-3.813-6.199-8.529-10.772-14.14-13.719c-5.612-2.943-11.703-5.515-18.268-7.724
			c-6.563-2.208-12.712-3.94-18.435-5.201c-5.729-1.261-10.534-3.049-14.424-5.364c-3.889-2.309-5.834-5.252-5.834-8.828
			c0-3.575,1.945-6.832,5.834-9.774c3.889-2.943,9.506-4.416,16.854-4.416c6.695,0,13.882,1.352,21.556,4.052
			c7.668,2.704,12.367,4.052,14.099,4.052c4.32,0,7.942-2.431,10.859-7.293c2.918-4.863,4.377-9.127,4.377-12.804
			c0-5.834-5.243-10.803-15.721-14.91c-6.63-2.594-13.846-4.365-21.64-5.321V73.451c0-8.263-6.699-14.962-14.962-14.962
			c-8.263,0-14.962,6.699-14.962,14.962v27.444c-12.217,1.964-21.674,6.402-28.334,13.338c-9.294,9.674-13.938,21.216-13.938,34.627
			c0,9.674,2.643,17.61,7.941,23.809c5.293,6.199,11.719,10.615,19.286,13.244c7.562,2.628,15.072,4.888,22.527,6.776
			c7.455,1.894,13.826,4.31,19.124,7.253c5.293,2.948,7.941,6.938,7.941,11.983c0,9.04-7.982,13.558-23.946,13.558
			c-8.094,0-15.087-1.129-20.993-3.393s-10.661-4.477-14.267-6.644c-3.611-2.168-6.619-3.252-9.019-3.252
			c-3.718,0-6.999,2.107-9.84,6.32c-2.847,4.214-4.264,8.265-4.264,12.155c-0.002,7.349,5.721,13.832,17.177,19.449
			c8.796,4.314,19.001,6.966,30.603,7.968v27.095c0,8.263,6.699,14.962,14.962,14.962c8.263,0,14.962-6.699,14.962-14.962V256.8
			c9.955-1.995,18.252-5.701,24.882-11.13c10.479-8.579,15.72-20.355,15.72-35.321C312.631,201.522,310.721,194.006,306.913,187.806
			z"/>
	</g>
</g>
<g>
</g>
<g>
</g>
<g>
</g>
<g>
</g>
<g>
</g>
<g>
</g>
<g>
</g>
<g>
</g>
<g>
</g>
<g>
</g>
<g>
</g>
<g>
</g>
<g>
</g>
<g>
</g>
<g>
</g>
</svg>
